lab6
…
Question 1: What specialties do we have?

We can use count() from dplyr to figure out how many different catagories do we have? Are these catagories related? overlapping? evenly distributed?

mt_samples %>%
  count(medical_specialty, sort = TRUE)

# A tibble: 40 × 2
   medical_specialty                 n
   <chr>                         <int>
 1 Surgery                        1103
 2 Consult - History and Phy.      516
 3 Cardiovascular / Pulmonary      372
 4 Orthopedic                      355
 5 Radiology                       273
 6 General Medicine                259
 7 Gastroenterology                230
 8 Neurology                       223
 9 SOAP / Chart / Progress Notes   166
10 Obstetrics / Gynecology         160
# ℹ 30 more rows
…
These two results are similar, because the word that appears most both include “patient”.

Question 5

Using the results you got from questions 4. Pick a word (patient) and count the words that appears after and before it.

surrounding_words <- mt_samples %>%
  unnest_tokens(word, transcription) %>%
  mutate(next_word = lead(word)) %>%
  filter(word == "patient") %>%
  count(next_word, sort = TRUE)
surrounding_words

# A tibble: 598 × 2
   next_word     n
   <chr>     <int>
 1 was        6293
 2 is         3332
 3 has        1417
 4 tolerated   994
 5 had         888
 6 will        616
 7 denies      552
 8 and         377
 9 states      363
10 does        334
# ℹ 588 more rows
…
Which words are most used in each of the specialties. you can use group_by() and top_n() from dplyr to have the calculations be done within each specialty. Remember to remove stopwords. How about the most 5 used words?

specialty_word_counts_1 <- mt_samples %>%
  unnest_tokens(word, transcription) %>%
  anti_join(stop_words) %>%
  group_by(medical_specialty) %>%
  count(word, sort = TRUE) %>%
  top_n(1, n)

Joining with `by = join_by(word)`

specialty_word_counts_1

# A tibble: 41 × 3
# Groups:   medical_specialty [40]
   medical_specialty          word        n
   <chr>                      <chr>   <int>
 1 Surgery                    patient  4855
 2 Consult - History and Phy. patient  3046
 3 Orthopedic                 patient  1711
 4 Cardiovascular / Pulmonary left     1550
 5 General Medicine           patient  1356
 6 Gastroenterology           patient   872
 7 Urology                    patient   776
 8 Radiology                  left      701
 9 Emergency Room Reports     patient   685
10 Discharge Summary          patient   672
# ℹ 31 more rows

specialty_word_counts_5 <- mt_samples %>%
  unnest_tokens(word, transcription) %>%
  anti_join(stop_words) %>%
  group_by(medical_specialty) %>%
  count(word, sort = TRUE) %>%
  top_n(5, n)

Joining with `by = join_by(word)`

specialty_word_counts_5

# A tibble: 209 × 3
# Groups:   medical_specialty [40]
   medical_specialty          word          n
   <chr>                      <chr>     <int>
 1 Surgery                    patient    4855
 2 Surgery                    left       3263
 3 Surgery                    procedure  3243
 4 Consult - History and Phy. patient    3046
 5 Consult - History and Phy. history    2820
 6 Surgery                    0          2094
 7 Surgery                    1          2038
 8 Orthopedic                 patient    1711
 9 Cardiovascular / Pulmonary left       1550
10 Cardiovascular / Pulmonary patient    1516
# ℹ 199 more rows
…
word_counts_specialty <- mt_samples %>%
  unnest_tokens(word, transcription) %>%
  anti_join(stop_words) %>%
  group_by(medical_specialty, word) %>%
  count(word, sort = TRUE)

Joining with `by = join_by(word)`

target_word <- "blood"
word_usage <- word_counts_specialty %>%
  filter(word == target_word)
word_usage

# A tibble: 39 × 3
# Groups:   medical_specialty, word [39]
   medical_specialty             word      n
   <chr>                         <chr> <int>
 1 Surgery                       blood   734
 2 Consult - History and Phy.    blood   600
 3 General Medicine              blood   407
 4 Cardiovascular / Pulmonary    blood   310
 5 SOAP / Chart / Progress Notes blood   194
 6 Orthopedic                    blood   187
 7 Obstetrics / Gynecology       blood   184
 8 Gastroenterology              blood   145
 9 Emergency Room Reports        blood   132
10 Discharge Summary             blood   115
# ℹ 29 more rows
…
